new_slots.sim/sim_1/behav/xsim/dump.vcd
$date
   Fri Jul 13 13:07:05 2018
$end
$version
  2018.2
$end
$timescale
  1ps
$end
$scope module top_tb $end
$scope module _top $end
$var wire 1 ! clk $end
$var wire 1 " reset $end
$var wire 1 # btn_l $end
$var wire 1 $ btn_r $end
$var wire 16 % leds [15:0] $end
$var wire 4 & disp_sel [3:0] $end
$var wire 8 ' disp_dig [7:0] $end
$var wire 32 ( memData [31:0] $end
$var wire 32 ) writeMemData [31:0] $end
$var wire 1 * MemWrite $end
$var wire 2 + MemMode [1:0] $end
$var wire 16 , memAddr [15:0] $end
$scope module _mips $end
$var wire 1 ! clk $end
$var wire 1 " reset $end
$var wire 32 ( memData [31:0] $end
$var wire 1 * MemWrite $end
$var wire 2 + MemMode [1:0] $end
$var wire 32 ) writeMemData [31:0] $end
$var wire 16 , memAddr [15:0] $end
$var wire 1 # btn_l [0:0] $end
$var wire 1 $ btn_r [0:0] $end
$var wire 16 % leds [15:0] $end
$var wire 4 & disp_sel [3:0] $end
$var wire 8 ' disp_dig [7:0] $end
$var wire 1 - PCWriteCond $end
$var wire 1 . PCWrite $end
$var wire 2 / PCSource [1:0] $end
$var wire 1 0 IorD $end
$var wire 1 1 MemToReg $end
$var wire 1 2 IRWrite $end
$var wire 1 3 RegWrite $end
$var wire 1 4 RegDst $end
$var wire 2 5 ALUSrcA [1:0] $end
$var wire 2 6 ALUSrcB [1:0] $end
$var wire 1 7 zero $end
$var wire 32 8 aluResult [31:0] $end
$var wire 32 9 aluParamData1 [31:0] $end
$var wire 32 : aluParamData2 [31:0] $end
$var wire 6 ; op [5:0] $end
$var wire 6 < funct [5:0] $end
$var wire 5 = ALUOP [4:0] $end
$scope module _datapath $end
$var wire 1 ! clk $end
$var wire 1 " reset $end
$var wire 1 - PCWriteCond $end
$var wire 1 . PCWrite $end
$var wire 2 / PCSource [1:0] $end
$var wire 1 0 IorD $end
$var wire 1 1 MemToReg $end
$var wire 1 2 IRWrite $end
$var wire 1 3 RegWrite $end
$var wire 1 4 RegDst $end
$var wire 2 5 ALUSrcA [1:0] $end
$var wire 2 6 ALUSrcB [1:0] $end
$var wire 1 7 zero $end
$var wire 32 8 aluResult [31:0] $end
$var wire 32 ( memData [31:0] $end
$var wire 6 ; op [5:0] $end
$var wire 6 < funct [5:0] $end
$var wire 32 9 aluParamData1 [31:0] $end
$var wire 32 : aluParamData2 [31:0] $end
$var wire 32 ) writeMemData [31:0] $end
$var wire 16 , memAddr [15:0] $end
$var wire 1 # btn_l [0:0] $end
$var wire 1 $ btn_r [0:0] $end
$var wire 16 % leds [15:0] $end
$var wire 4 & disp_sel [3:0] $end
$var wire 8 ' disp_dig [7:0] $end
$var wire 1 > RealPCWrite $end
$var wire 16 ? nextInsAddr [15:0] $end
$var wire 16 @ currentInsAddr [15:0] $end
$var wire 32 A aluOut [31:0] $end
$var wire 32 B instruction [31:0] $end
$var wire 32 C memDataInReg [31:0] $end
$var wire 5 D writeRegAddr [4:0] $end
$var wire 32 E writeRegData [31:0] $end
$var wire 32 F dataFromReg1 [31:0] $end
$var wire 32 G dataFromReg2 [31:0] $end
$var wire 32 H regData1 [31:0] $end
$var wire 32 I regData2 [31:0] $end
$var wire 5 J regAddr1FromInstr [4:0] $end
$var wire 5 K regAddr2FromInstr [4:0] $end
$var wire 5 L regAddr3FromInstr [4:0] $end
$var wire 16 M immFromInstr [15:0] $end
$var wire 26 N jumpAddrFromInstr [25:0] $end
$var wire 32 O extendedImm [31:0] $end
$var wire 32 P extendedImmx4 [31:0] $end
$var wire 28 Q jumpAddrFromInstrx4 [27:0] $end
$scope module mips_pc $end
$var wire 1 ! clk $end
$var wire 1 " reset $end
$var wire 16 ? next_ins [15:0] $end
$var wire 1 > PCWrite $end
$var wire 16 @ ins [15:0] $end
$scope module _pc $end
$var wire 1 ! clk $end
$var wire 1 " reset $end
$var wire 1 > en $end
$var wire 16 ? d [15:0] $end
$var reg 16 R q [15:0] $end
$var parameter 32 S WIDTH [31:0] $end
$upscope $end
$upscope $end
$scope module mips_instr_addr_src $end
$var wire 16 @ data1 [15:0] $end
$var wire 16 T data2 [15:0] $end
$var wire 1 0 select $end
$var wire 16 , out [15:0] $end
$var parameter 32 U WIDTH [31:0] $end
$upscope $end
$scope module mips_reg_write_addr_src $end
$var wire 5 K data1 [4:0] $end
$var wire 5 L data2 [4:0] $end
$var wire 1 4 select $end
$var wire 5 D out [4:0] $end
$var parameter 32 V WIDTH [31:0] $end
$upscope $end
$scope module mips_reg $end
$var wire 1 ! clk $end
$var wire 1 " reset $end
$var wire 1 3 regWrite $end
$var wire 5 J readAddr1 [4:0] $end
$var wire 5 K readAddr2 [4:0] $end
$var wire 5 D writeAddr [4:0] $end
$var wire 32 E writeData [31:0] $end
$var wire 32 F readData1 [31:0] $end
$var wire 32 G readData2 [31:0] $end
$var wire 1 # btn_l [0:0] $end
$var wire 1 $ btn_r [0:0] $end
$var wire 16 % leds [15:0] $end
$var wire 4 & disp_sel [3:0] $end
$var wire 8 ' disp_dig [7:0] $end
$var wire 32 W IOState [31:0] $end
$var wire 32 X blank [31:0] $end
$var wire 32 Y num1 [31:0] $end
$var wire 32 Z num2 [31:0] $end
$var wire 32 [ num3 [31:0] $end
$var parameter 32 \ WIDTH [31:0] $end
$var parameter 32 ] ADDR_WIDTH [31:0] $end
$scope module _btn $end
$var wire 1 ! clk $end
$var wire 1 " reset $end
$var wire 1 # btn_l $end
$var wire 1 $ btn_r $end
$var reg 32 ^ IOState [31:0] $end
$upscope $end
$scope module dis $end
$var wire 1 ! clk $end
$var wire 32 Y num1 [31:0] $end
$var wire 32 Z num2 [31:0] $end
$var wire 32 [ num3 [31:0] $end
$var wire 32 X blank [31:0] $end
$var reg 16 _ led [15:0] $end
$var wire 16 ` out_led [15:0] $end
$var reg 4 a sel [3:0] $end
$var reg 8 b seg [7:0] $end
$var reg 8 c dat [7:0] $end
$var reg 2 d cursel [1:0] $end
$var reg 2 e cursel_0 [1:0] $end
$var integer 32 f selcnt_1 $end
$var integer 32 g selcnt_2 $end
$var parameter 32 h update_interval [31:0] $end
$var parameter 32 i led_interval [31:0] $end
$upscope $end
$upscope $end
$scope module mips_instr_reg $end
$var wire 1 ! clk $end
$var wire 1 " reset $end
$var wire 1 2 en $end
$var wire 32 ( d [31:0] $end
$var reg 32 j q [31:0] $end
$var parameter 32 k WIDTH [31:0] $end
$upscope $end
$scope module mips_aluresult_reg $end
$var wire 1 ! clk $end
$var wire 1 " reset $end
$var wire 1 l en $end
$var wire 32 8 d [31:0] $end
$var reg 32 m q [31:0] $end
$var parameter 32 n WIDTH [31:0] $end
$upscope $end
$scope module mips_mem_reg $end
$var wire 1 ! clk $end
$var wire 1 " reset $end
$var wire 1 o en $end
$var wire 32 ( d [31:0] $end
$var reg 32 p q [31:0] $end
$var parameter 32 q WIDTH [31:0] $end
$upscope $end
$scope module mips_reg_write_data_src $end
$var wire 32 A data1 [31:0] $end
$var wire 32 C data2 [31:0] $end
$var wire 1 1 select $end
$var wire 32 E out [31:0] $end
$var parameter 32 r WIDTH [31:0] $end
$upscope $end
$scope module mips_dff_a $end
$var wire 1 ! clk $end
$var wire 1 " reset $end
$var wire 1 s en $end
$var wire 32 F d [31:0] $end
$var reg 32 t q [31:0] $end
$var parameter 32 u WIDTH [31:0] $end
$upscope $end
$scope module mips_dff_b $end
$var wire 1 ! clk $end
$var wire 1 " reset $end
$var wire 1 v en $end
$var wire 32 G d [31:0] $end
$var reg 32 w q [31:0] $end
$var parameter 32 x WIDTH [31:0] $end
$upscope $end
$scope module mips_alu_src1 $end
$var wire 32 y data1 [31:0] $end
$var wire 32 H data2 [31:0] $end
$var wire 32 B data3 [31:0] $end
$var wire 32 z data4 [31:0] $end
$var wire 2 5 select [1:0] $end
$var reg 32 { out [31:0] $end
$var parameter 32 | WIDTH [31:0] $end
$upscope $end
$scope module imm_extend $end
$var wire 16 M srcImm [15:0] $end
$var wire 32 O res [31:0] $end
$upscope $end
$scope module extended_imm_left_shift2 $end
$var wire 32 O src [31:0] $end
$var wire 32 P out [31:0] $end
$var parameter 32 } WIDTH [31:0] $end
$upscope $end
$scope module mips_alu_src2 $end
$var wire 32 I data1 [31:0] $end
$var wire 32 ~ data2 [31:0] $end
$var wire 32 O data3 [31:0] $end
$var wire 32 P data4 [31:0] $end
$var wire 2 6 select [1:0] $end
$var reg 32 !! out [31:0] $end
$var parameter 32 "! WIDTH [31:0] $end
$upscope $end
$scope module jump_addr_left_shift2 $end
$var wire 28 #! src [27:0] $end
$var wire 28 Q out [27:0] $end
$var parameter 32 $! WIDTH [31:0] $end
$upscope $end
$scope module next_instr_src $end
$var wire 16 %! data1 [15:0] $end
$var wire 16 T data2 [15:0] $end
$var wire 16 &! data3 [15:0] $end
$var wire 16 '! data4 [15:0] $end
$var wire 2 / select [1:0] $end
$var reg 16 (! out [15:0] $end
$var parameter 32 )! WIDTH [31:0] $end
$upscope $end
$upscope $end
$scope module _controller $end
$var wire 1 ! clk $end
$var wire 1 " reset $end
$var wire 6 ; op [5:0] $end
$var wire 6 < funct [5:0] $end
$var reg 1 *! MemWrite [0:0] $end
$var reg 2 +! MemMode [1:0] $end
$var reg 1 ,! PCWriteCond [0:0] $end
$var reg 1 -! PCWrite [0:0] $end
$var reg 2 .! PCSource [1:0] $end
$var reg 1 /! IorD [0:0] $end
$var reg 1 0! MemToReg [0:0] $end
$var reg 1 1! IRWrite [0:0] $end
$var reg 1 2! RegWrite [0:0] $end
$var reg 1 3! RegDst [0:0] $end
$var reg 2 4! ALUSrcA [1:0] $end
$var reg 2 5! ALUSrcB [1:0] $end
$var reg 5 6! ALUOP [4:0] $end
$var reg 6 7! state [5:0] $end
$var reg 6 8! nextState [5:0] $end
$var parameter 6 9! FETCH [5:0] $end
$var parameter 6 :! DECODE [5:0] $end
$var parameter 6 ;! MEM_ADDR_COMPUTE [5:0] $end
$var parameter 6 <! MEM_READ_WORD [5:0] $end
$var parameter 6 =! MEM_READ_SIGNED_BYTE [5:0] $end
$var parameter 6 >! MEM_READ_UNSIGNED_BYTE [5:0] $end
$var parameter 6 ?! MEM_WRITE_BACK_TO_REG [5:0] $end
$var parameter 6 @! MEM_WRITE_WORD [5:0] $end
$var parameter 6 A! MEM_WRITE_BYTE [5:0] $end
$var parameter 6 B! RTYPE_EXCUTION [5:0] $end
$var parameter 6 C! RTYPE_COMPLETION [5:0] $end
$var parameter 6 D! BRANCH_COMPLETION [5:0] $end
$var parameter 6 E! JUMP_COMPLETION [5:0] $end
$var parameter 6 F! IMM_EXCUTION [5:0] $end
$var parameter 6 G! IMM_COMPLETION [5:0] $end
$var parameter 6 H! RESET [5:0] $end
$var parameter 6 I! HALT [5:0] $end
$var parameter 6 J! LW [5:0] $end
$var parameter 6 K! LB [5:0] $end
$var parameter 6 L! LBU [5:0] $end
$var parameter 6 M! J [5:0] $end
$var parameter 6 N! RTYPE [5:0] $end
$var parameter 6 O! SB [5:0] $end
$var parameter 6 P! SW [5:0] $end
$var parameter 6 Q! ORI [5:0] $end
$var parameter 6 R! LUI [5:0] $end
$var parameter 6 S! BEQ [5:0] $end
$var parameter 6 T! BNE [5:0] $end
$var parameter 6 U! ADDI [5:0] $end
$var parameter 6 V! ADDIU [5:0] $end
$var parameter 6 W! SLL [5:0] $end
$var parameter 6 X! SRL [5:0] $end
$var parameter 6 Y! SRA [5:0] $end
$var parameter 6 Z! OR [5:0] $end
$var parameter 6 [! ADDU [5:0] $end
$var parameter 6 \! ADD [5:0] $end
$var parameter 6 ]! SUB [5:0] $end
$var parameter 6 ^! SUBU [5:0] $end
$var parameter 6 _! AND [5:0] $end
$upscope $end
$scope module _alu $end
$var wire 32 9 param1 [31:0] $end
$var wire 32 : param2 [31:0] $end
$var wire 5 = ALUControl [4:0] $end
$var wire 1 7 zero $end
$var reg 32 `! aluResult [31:0] $end
$var parameter 32 a! WIDTH [31:0] $end
$var parameter 5 b! SUM [4:0] $end
$var parameter 5 c! OR [4:0] $end
$var parameter 5 d! AND [4:0] $end
$var parameter 5 e! SL [4:0] $end
$var parameter 5 f! SRL [4:0] $end
$var parameter 5 g! SRA [4:0] $end
$var parameter 5 h! LUI [4:0] $end
$var parameter 5 i! ORI [4:0] $end
$var parameter 5 j! SUB [4:0] $end
$var parameter 5 k! NEQ [4:0] $end
$upscope $end
$upscope $end
$scope module _ex_mem $end
$var wire 1 ! clk $end
$var wire 1 " reset $end
$var wire 1 * MemWrite $end
$var wire 2 + MemMode [1:0] $end
$var wire 16 , memAddr [15:0] $end
$var wire 32 ) memWriteData [31:0] $end
$var reg 32 l! memReadData [31:0] $end
$var wire 32 m! romData [31:0] $end
$var wire 32 n! ramData [31:0] $end
$var wire 1 o! RamWrite $end
$var parameter 32 p! WIDTH [31:0] $end
$var parameter 32 q! ADDR_WIDTH [31:0] $end
$scope module ROM $end
$var wire 10 r! addr [9:0] $end
$var wire 32 m! data [31:0] $end
$var parameter 32 s! WIDTH [31:0] $end
$var parameter 32 t! ADDR_WIDTH [31:0] $end
$upscope $end
$scope module RAM $end
$var wire 1 ! clk $end
$var wire 1 o! write $end
$var wire 10 r! addr [9:0] $end
$var wire 32 ) inData [31:0] $end
$var wire 32 n! outData [31:0] $end
$var parameter 32 u! WIDTH [31:0] $end
$var parameter 32 v! ADDR_WIDTH [31:0] $end
$upscope $end
$upscope $end
$upscope $end
$upscope $end
$enddefinitions $end
#0
$dumpvars
0!
bx !!
0"
b100000 "!
0#
b0xxxxxxxxxxxxxxxxxxxxxxxxxx #!
0$
b11100 $!
bx %
bx %!
b111 &
bx00 &!
bx '
b0 '!
bx (
bx (!
bx )
b10000 )!
x*
x*!
bx +
bx +!
bx ,
x,!
x-
x-!
x.
bx .!
bx /
x/!
x0
x0!
x1
x1!
x2
x2!
x3
x3!
x4
bx 4!
bx 5
bx 5!
bx 6
bx 6!
x7
bx 7!
bx 8
bx 8!
bx 9
b0 9!
bx :
b1 :!
bx ;
b10 ;!
bx <
b11 <!
bx =
b100 =!
x>
b101 >!
bx ?
b110 ?!
bx @
b111 @!
bx A
b1000 A!
bx B
b1001 B!
bx C
b1010 C!
bx D
b1011 D!
bx E
b1100 E!
bx F
b1101 F!
bx G
b1110 G!
bx H
b111110 H!
bx I
b111111 I!
bx J
b100011 J!
bx K
b100000 K!
bx L
b100100 L!
bx M
b10 M!
bx N
b0 N!
bx O
b101000 O!
bx00 P
b101011 P!
bx00 Q
b1101 Q!
bx R
b1111 R!
b10000 S
b100 S!
bx T
b101 T!
b10000 U
b1000 U!
b101 V
b1001 V!
b11111111111111111111111111111111 W
b0 W!
bx X
b10 X!
bx Y
b11 Y!
bx Z
b100101 Z!
bx [
b100001 [!
b100000 \
b100000 \!
b101 ]
b100010 ]!
b11111111111111111111111111111111 ^
b100011 ^!
bx _
b100100 _!
bz `
bx `!
b111 a
b100000 a!
bx b
b0 b!
bx c
b1 c!
b0 d
b11 d!
b0 e
b100 e!
b0 f
b101 f!
b0 g
b110 g!
b1111010000100011111 h
b111 h!
b1001100010010110011111111 i
b1000 i!
bx j
b1001 j!
b100000 k
b1010 k!
1l
bx l!
bx m
bx m!
b100000 n
bx n!
1o
xo!
bx p
b100000 p!
b100000 q
b10000 q!
b100000 r
bx r!
1s
b100000 s!
bx t
b1010 t!
b100000 u
b100000 u!
1v
b1010 v!
bx w
b100000 x
b0xxxxxxxxxxxxxxxx y
b1 z
bx {
b100000 |
b100000 }
b100 ~
$end
#5000
1!
b0 %
bx F
bx G
b0 _
b1 f
b1 g
#10000
0!
#15000
1!
b0 _
b10 f
b10 g
#20000
0!
#25000
1!
b0 _
b11 f
b11 g
#30000
0!
#35000
1!
b0 _
b100 f
b100 g
#40000
0!
#45000
1!
b0 _
b101 f
b101 g
#50000
0!
#55000
1!
b0 _
b110 f
b110 g
#60000
0!
#65000
1!
b0 _
b111 f
b111 g
#70000
0!
#75000
1!
b0 _
b1000 f
b1000 g
#80000
0!
#85000
1!
b0 _
b1001 f
b1001 g
#90000
0!
#95000
1!
b0 _
b1010 f
b1010 g
#100000
0!
1"
0o!
#105000
1!
b0 !!
b0 #!
b0 %!
b0 &!
b0 (
b0 (!
b0 )
0*
0*!
b0 +
b0 +!
b0 ,
0,!
0-
0-!
0.
b0 .!
b0 /
0/!
00
00!
01
01!
02
02!
03
03!
04
b0 4!
b0 5
b0 5!
b0 6
b0 6!
17
b111110 7!
b0 8
b0 8!
b0 9
b0 :
b0 ;
b0 <
b0 =
0>
b0 ?
b0 @
b0 A
b0 B
b0 C
b0 D
b0 E
b0 F
b0 G
b0 H
b0 I
b0 J
b0 K
b0 L
b0 M
b0 N
b0 O
b0 P
b0 Q
b0 R
b0 T
b0 W
b0 ^
b0 _
b0 `!
b1011 f
b1011 g
b0 j
b0 l!
b0 m
b0 m!
bx n!
b0 p
b0 r!
b0 t
b0 w
b0 y
b0 {
#110000
0!
#115000
1!
b0 F
b0 G
b0 ^
b0 _
b1100 f
b1100 g
#120000
0!
#125000
1!
b0 ^
b0 _
b1101 f
b1101 g
#130000
0!
#135000
1!
b0 ^
b0 _
b1110 f
b1110 g
#140000
0!
#145000
1!
b0 ^
b0 _
b1111 f
b1111 g
#150000
0!
#155000
1!
b0 ^
b0 _
b10000 f
b10000 g
#160000
0!
#165000
1!
b0 ^
b0 _
b10001 f
b10001 g
#170000
0!
#175000
1!
b0 ^
b0 _
b10010 f
b10010 g
#180000
0!
#185000
1!
b0 ^
b0 _
b10011 f
b10011 g
#190000
0!
#195000
1!
b0 ^
b0 _
b10100 f
b10100 g
#200000
0!
#205000
1!
b0 ^
b0 _
b10101 f
b10101 g
#210000
0!
#215000
1!
b0 ^
b0 _
b10110 f
b10110 g
#220000
0!
#225000
1!
b0 ^
b0 _
b10111 f
b10111 g
#230000
0!
#235000
1!
b0 ^
b0 _
b11000 f
b11000 g
#240000
0!
#245000
1!
b0 ^
b0 _
b11001 f
b11001 g
#250000
0!
#255000
1!
b0 ^
b0 _
b11010 f
b11010 g
#260000
0!
#265000
1!
b0 ^
b0 _
b11011 f
b11011 g
#270000
0!
#275000
1!
b0 ^
b0 _
b11100 f
b11100 g
#280000
0!
#285000
1!
b0 ^
b0 _
b11101 f
b11101 g
#290000
0!
#295000
1!
b0 ^
b0 _
b11110 f
b11110 g
#300000
0!
0"
#305000
1!
b100 !!
b100 %!
b100 (!
1-!
1.
11!
12
b1 5!
b1 6
07
b0 7!
b100 8
b1 8!
b100 :
1>
b100 ?
b0 _
b100 `!
b11111 f
b11111 g
#310000
0!
#315000
1!
b0 !!
b100 %!
b100000000100110000000000000001 (
b100 (!
b100 ,
0-!
0.
01!
02
b11 5!
b11 6
07
b1 7!
b100 8
b1001 8!
b100 9
b0 :
0>
b100 ?
b100 @
b100 A
b100 E
b100 R
b100 T
b0 _
b100 `!
b100000 f
b100000 g
b100000000100110000000000000001 l!
b100 m
b100000000100110000000000000001 m!
bx n!
b1 r!
b100 y
b100 {
#320000
0!
#325000
1!
b0 %!
b0 (!
b10 4!
b10 5
b0 5!
b0 6
b100 6!
17
b1001 7!
b0 8
b1010 8!
b0 9
b100 =
0>
b0 ?
b100000000100110000000000000001 C
b100 E
b0 _
b0 `!
b100001 f
b100001 g
b100000000100110000000000000001 p
b0 {
#330000
0!
#335000
1!
b100 %!
b100 (!
b100 ,
12!
13
13!
14
b0 4!
b0 5
b0 6!
07
b1010 7!
b100 8
b0 8!
b100 9
b0 =
0>
b100 ?
b0 A
b0 D
b0 E
b0 T
b0 _
b100 `!
b100010 f
b100010 g
b0 m
b1 r!
b100 {
#340000
0!
#345000
1!
b100 !!
b1000 %!
b1000 (!
b100 ,
1-!
1.
11!
12
02!
03
03!
04
b1 5!
b1 6
07
b0 7!
b1000 8
b1 8!
b100 :
1>
b1000 ?
b100 A
b0 D
b100 E
b100 T
b0 _
b1000 `!
b100011 f
b100011 g
b100 m
b1 r!
#350000
0!
#355000
1!
b100110000000000000001 #!
b1100 %!
b100 &!
b100000000010000000000000001000 (
b1100 (!
b1000 ,
0-!
0.
01!
02
b11 5!
b11 6
07
b1 7!
b1100 8
b1101 8!
b1000 9
b1000 ;
b1 <
0>
b1100 ?
b1000 @
b1000 A
b100000000100110000000000000001 B
b10011 D
b1000 E
bx G
b10011 K
b1 M
b100110000000000000001 N
b1 O
b100 P
b10011000000000000000100 Q
b1000 R
b1000 T
b0 _
b1100 `!
b100100 f
b100100 g
b100000000100110000000000000001 j
b100000000010000000000000001000 l!
b1000 m
b100000000010000000000000001000 m!
bx n!
b10 r!
b1000 y
b1000 {
#360000
0!
#365000
1!
b1 !!
b1 %!
b1 (!
bx )
b1000 ,
b1 4!
b1 5
b10 5!
b10 6
07
b1101 7!
b1 8
b1110 8!
b0 9
b1 :
b1 ?
b1100 A
b100000000010000000000000001000 C
b1100 E
bx I
b1100 T
b0 _
b1 `!
b100101 f
b100101 g
b1100 m
b100000000010000000000000001000 p
b10 r!
bx w
b0 {
#370000
0!
#375000
1!
bx !!
bx %!
bx (!
b1000 ,
12!
13
b0 4!
b0 5
b0 5!
b0 6
x7
b1110 7!
bx 8
b0 8!
b1000 9
bx :
0>
bx ?
b1 A
b1 E
b1 T
b0 _
bx `!
b100110 f
b100110 g
b1 m
b10 r!
b1000 {
#380000
0!
#385000
1!
b100 !!
b1100 %!
b11 '
b1100 (!
b1000 ,
1-!
1.
11!
12
02!
03
b1 5!
b1 6
07
b0 7!
b1100 8
b1 8!
b100 :
1>
b1100 ?
bx A
bx E
b0 F
b1 G
bx T
b1 Y
b0 _
b1100 `!
b111 a
b11 b
b1 c
b100111 f
b100111 g
bx m
b10 r!
#390000
0!
#395000
1!
b100000 !!
b10000000000000001000 #!
b101100 %!
b100000 &!
b100000000100000000000000001100 (
b101100 (!
b1 )
b1100 ,
0-!
0.
01!
02
b11 5!
b11 6
07
b1 7!
b101100 8
b1101 8!
b1100 9
b100000 :
b1000 <
0>
b101100 ?
b1100 @
b1100 A
b100000000010000000000000001000 B
b1000 D
b1100 E
bx G
b1 I
b1000 K
b1000 M
b10000000000000001000 N
b1000 O
b100000 P
b1000000000000000100000 Q
b1100 R
b1100 T
b0 _
b101100 `!
b101000 f
b101000 g
b100000000010000000000000001000 j
b100000000100000000000000001100 l!
b1100 m
b100000000100000000000000001100 m!
bx n!
b11 r!
b1 w
b1100 y
b1100 {
#400000
0!
#405000
1!
b1000 !!
b1000 %!
b1000 (!
bx )
b1100 ,
b1 4!
b1 5
b10 5!
b10 6
07
b1101 7!
b1000 8
b1110 8!
b0 9
b1000 :
b1000 ?
b101100 A
b100000000100000000000000001100 C
b101100 E
bx I
b101100 T
b0 _
b1000 `!
b101001 f
b101001 g
b101100 m
b100000000100000000000000001100 p
b11 r!
bx w
b0 {
#410000
0!
#415000
1!
bx !!
bx %!
bx (!
b1100 ,
12!
13
b0 4!
b0 5
b0 5!
b0 6
x7
b1110 7!
bx 8
b0 8!
b1100 9
bx :
0>
bx ?
b1000 A
b1000 E
b1000 T
b0 _
bx `!
b101010 f
b101010 g
b1000 m
b11 r!
b1100 {
#420000
0!
#425000
1!
b100 !!
b10000 %!
b10000 (!
b1100 ,
1-!
1.
11!
12
02!
03
b1 5!
b1 6
07
b0 7!
b10000 8
b1 8!
b100 :
1>
b10000 ?
bx A
bx E
b0 F
b1000 G
bx T
b1000 Z
b0 _
b10000 `!
b111 a
b1 c
b101011 f
b101011 g
bx m
b11 r!
#430000
0!
#435000
1!
b110000 !!
b100000000000000001100 #!
b1000000 %!
b110000 &!
b1000100000100100 (
b1000000 (!
b1000 )
b10000 ,
0-!
0.
01!
02
b11 5!
b11 6
07
b1 7!
b1000000 8
b1101 8!
b10000 9
b110000 :
b1100 <
0>
b1000000 ?
b10000 @
b10000 A
b100000000100000000000000001100 B
b10000 D
b10000 E
bx G
b1000 I
b10000 K
b1100 M
b100000000000000001100 N
b1100 O
b110000 P
b10000000000000000110000 Q
b10000 R
b10000 T
b0 _
b1000000 `!
b101100 f
b101100 g
b100000000100000000000000001100 j
b1000100000100100 l!
b10000 m
b1000100000100100 m!
bx n!
b100 r!
b1000 w
b10000 y
b10000 {
#440000
0!
#445000
1!
b1100 !!
b1100 %!
b1100 (!
bx )
b10000 ,
b1 4!
b1 5
b10 5!
b10 6
07
b1101 7!
b1100 8
b1110 8!
b0 9
b1100 :
b1100 ?
b1000000 A
b1000100000100100 C
b1000000 E
bx I
b1000000 T
b0 _
b1100 `!
b101101 f
b101101 g
b1000000 m
b1000100000100100 p
b100 r!
bx w
b0 {
#450000
0!
#455000
1!
bx !!
bx %!
bx (!
b10000 ,
12!
13
b0 4!
b0 5
b0 5!
b0 6
x7
b1110 7!
bx 8
b0 8!
b10000 9
bx :
0>
bx ?
b1100 A
b1100 E
b1100 T
b0 _
bx `!
b101110 f
b101110 g
b1100 m
b100 r!
b10000 {
#460000
0!
#465000
1!
b100 !!
b10100 %!
b10100 (!
b10000 ,
1-!
1.
11!
12
02!
03
b1 5!
b1 6
07
b0 7!
b10100 8
b1 8!
b100 :
1>
b10100 ?
bx A
bx E
b0 F
b1100 G
bx T
b1100 [
b0 _
b10100 `!
b111 a
b1 c
b101111 f
b101111 g
bx m
b100 r!
#470000
0!
#475000
1!
b11111111111111100010000010010000 !!
b1000100000100100 #!
b10000010100100 %!
b10000010010000 &!
b100000000101010000000000000010 (
b10000010100100 (!
b1100 )
b10100 ,
0-!
0.
01!
02
b11 5!
b11 6
07
b1 7!
b11111111111111100010000010100100 8
b1001 8!
b10100 9
b11111111111111100010000010010000 :
b0 ;
b100100 <
0>
b10000010100100 ?
b10100 @
b10100 A
b1000100000100100 B
b0 D
b10100 E
b0 G
b1100 I
b0 K
b10001 L
b1000100000100100 M
b1000100000100100 N
b11111111111111111000100000100100 O
b11111111111111100010000010010000 P
b100010000010010000 Q
b10100 R
b10100 T
b0 _
b11111111111111100010000010100100 `!
b110000 f
b110000 g
b1000100000100100 j
b100000000101010000000000000010 l!
b10100 m
b100000000101010000000000000010 m!
bx n!
b101 r!
b1100 w
b10100 y
b10100 {
#480000
0!
#485000
1!
b0 !!
b0 %!
b0 (!
b0 )
b10100 ,
b1 4!
b1 5
b0 5!
b0 6
b11 6!
17
b1001 7!
b0 8
b1010 8!
b0 9
b0 :
b11 =
0>
b0 ?
b11111111111111100010000010100100 A
b100000000101010000000000000010 C
b11111111111111100010000010100100 E
b0 I
b10000010100100 T
b0 _
b0 `!
b110001 f
b110001 g
b11111111111111100010000010100100 m
b100000000101010000000000000010 p
b101 r!
b0 w
b0 {
#490000
0!
#495000
1!
b10100 %!
b10100 (!
b10100 ,
12!
13
13!
14
b0 4!
b0 5
b0 6!
07
b1010 7!
b10100 8
b0 8!
b10100 9
b0 =
0>
b10100 ?
b0 A
b10001 D
b0 E
b0 T
b0 _
b10100 `!
b110010 f
b110010 g
b0 m
b101 r!
b10100 {
#500000
0!
#505000
1!
b100 !!
b11000 %!
b11000 (!
b10100 ,
1-!
1.
11!
12
02!
03
03!
04
b1 5!
b1 6
07
b0 7!
b11000 8
b1 8!
b100 :
1>
b11000 ?
b10100 A
b0 D
b10100 E
b0 F
b0 G
b10100 T
b0 _
b11000 `!
b110011 f
b110011 g
b10100 m
b101 r!
#510000
0!
#515000
1!
b1000 !!
b101010000000000000010 #!
b100000 %!
b1000 &!
b100000000101110000000000000010 (
b100000 (!
b11000 ,
0-!
0.
01!
02
b11 5!
b11 6
07
b1 7!
b100000 8
b1101 8!
b11000 9
b1000 :
b1000 ;
b10 <
0>
b100000 ?
b11000 @
b11000 A
b100000000101010000000000000010 B
b10101 D
b11000 E
bx G
b10101 K
b0 L
b10 M
b101010000000000000010 N
b10 O
b1000 P
b10101000000000000001000 Q
b11000 R
b11000 T
b0 _
b100000 `!
b110100 f
b110100 g
b100000000101010000000000000010 j
b100000000101110000000000000010 l!
b11000 m
b100000000101110000000000000010 m!
bx n!
b110 r!
b11000 y
b11000 {
#520000
0!
#525000
1!
b10 !!
b10 %!
b10 (!
bx )
b11000 ,
b1 4!
b1 5
b10 5!
b10 6
07
b1101 7!
b10 8
b1110 8!
b0 9
b10 :
b10 ?
b100000 A
b100000000101110000000000000010 C
b100000 E
bx I
b100000 T
b0 _
b10 `!
b110101 f
b110101 g
b100000 m
b100000000101110000000000000010 p
b110 r!
bx w
b0 {
#530000
0!
#535000
1!
bx !!
bx %!
bx (!
b11000 ,
12!
13
b0 4!
b0 5
b0 5!
b0 6
x7
b1110 7!
bx 8
b0 8!
b11000 9
bx :
0>
bx ?
b10 A
b10 E
b10 T
b0 _
bx `!
b110110 f
b110110 g
b10 m
b110 r!
b11000 {
#540000
0!
#545000
1!
b100 !!
b11100 %!
b11100 (!
b11000 ,
1-!
1.
11!
12
02!
03
b1 5!
b1 6
07
b0 7!
b11100 8
b1 8!
b100 :
1>
b11100 ?
bx A
bx E
b0 F
b10 G
bx T
b0 _
b11100 `!
b110111 f
b110111 g
bx m
b110 r!
#550000
0!
#555000
1!
b1000 !!
b101110000000000000010 #!
b100100 %!
b1000 &!
b1010000000100100 (
b100100 (!
b10 )
b11100 ,
0-!
0.
01!
02
b11 5!
b11 6
07
b1 7!
b100100 8
b1101 8!
b11100 9
b1000 :
0>
b100100 ?
b11100 @
b11100 A
b100000000101110000000000000010 B
b10111 D
b11100 E
b0 G
b10 I
b10111 K
b101110000000000000010 N
b10111000000000000001000 Q
b11100 R
b11100 T
b0 _
b100100 `!
b111000 f
b111000 g
b100000000101110000000000000010 j
b1010000000100100 l!
b11100 m
b1010000000100100 m!
bx n!
b111 r!
b10 w
b11100 y
b11100 {
#560000
0!
