new_slots.sim/sim_1/behav/xsim/simulate.log
Vivado Simulator 2018.2
Time resolution is 1 ps
[regfile] time: 0000000000000005, regWrite: x, writeAddr: xx, writeData: xxxxxxxx, $t0: xxxxxxxx, $t1: xxxxxxxx, $t2: xxxxxxxx, $t3: 00000008
[regfile] time: 000000000000000f, regWrite: x, writeAddr: xx, writeData: xxxxxxxx, $t0: xxxxxxxx, $t1: xxxxxxxx, $t2: xxxxxxxx, $t3: 00000008
[regfile] time: 0000000000000019, regWrite: x, writeAddr: xx, writeData: xxxxxxxx, $t0: xxxxxxxx, $t1: xxxxxxxx, $t2: xxxxxxxx, $t3: 00000008
[regfile] time: 0000000000000023, regWrite: x, writeAddr: xx, writeData: xxxxxxxx, $t0: xxxxxxxx, $t1: xxxxxxxx, $t2: xxxxxxxx, $t3: 00000008
[regfile] time: 000000000000002d, regWrite: x, writeAddr: xx, writeData: xxxxxxxx, $t0: xxxxxxxx, $t1: xxxxxxxx, $t2: xxxxxxxx, $t3: 00000008
[regfile] time: 0000000000000037, regWrite: x, writeAddr: xx, writeData: xxxxxxxx, $t0: xxxxxxxx, $t1: xxxxxxxx, $t2: xxxxxxxx, $t3: 00000008
[regfile] time: 0000000000000041, regWrite: x, writeAddr: xx, writeData: xxxxxxxx, $t0: xxxxxxxx, $t1: xxxxxxxx, $t2: xxxxxxxx, $t3: 00000008
[regfile] time: 000000000000004b, regWrite: x, writeAddr: xx, writeData: xxxxxxxx, $t0: xxxxxxxx, $t1: xxxxxxxx, $t2: xxxxxxxx, $t3: 00000008
[regfile] time: 0000000000000055, regWrite: x, writeAddr: xx, writeData: xxxxxxxx, $t0: xxxxxxxx, $t1: xxxxxxxx, $t2: xxxxxxxx, $t3: 00000008
[regfile] time: 000000000000005f, regWrite: x, writeAddr: xx, writeData: xxxxxxxx, $t0: xxxxxxxx, $t1: xxxxxxxx, $t2: xxxxxxxx, $t3: 00000008
[regfile] time: 0000000000000069, regWrite: x, writeAddr: xx, writeData: xxxxxxxx, $t0: xxxxxxxx, $t1: xxxxxxxx, $t2: xxxxxxxx, $t3: 00000008
[controller] time: 0000000000000069, current State: RESET
[datapath] time: 0000000000000069, RealPCWrite: x, PCSource: x, nextInsAddr: xxxx, currentInsAddr: 0000, aluResult xxxxxxxx, aluOut: 00000000, instruction: 00000000, memAddr: 0000, memData: xxxxxxxx, memDataInReg: 00000000, writeRegAddr: xx, writeRegData: 00000000, dataFromReg1: xxxxxxxx, dataFromReg2: xxxxxxxx, aluParamData1: xxxxxxxx, aluParamData2: xxxxxxxx, ALUSrcA: xx, ALUSrcB: xx
[controller] time: 0000000000000069, current State: RESET
[datapath] time: 0000000000000069, RealPCWrite: x, PCSource: x, nextInsAddr: xxxx, currentInsAddr: 0000, aluResult xxxxxxxx, aluOut: 00000000, instruction: 00000000, memAddr: 0000, memData: xxxxxxxx, memDataInReg: 00000000, writeRegAddr: 00, writeRegData: 00000000, dataFromReg1: 00000000, dataFromReg2: 00000000, aluParamData1: xxxxxxxx, aluParamData2: xxxxxxxx, ALUSrcA: xx, ALUSrcB: xx
[datapath] time: 0000000000000069, RealPCWrite: 0, PCSource: 0, nextInsAddr: xxxx, currentInsAddr: 0000, aluResult xxxxxxxx, aluOut: 00000000, instruction: 00000000, memAddr: 0000, memData: xxxxxxxx, memDataInReg: 00000000, writeRegAddr: 00, writeRegData: 00000000, dataFromReg1: 00000000, dataFromReg2: 00000000, aluParamData1: xxxxxxxx, aluParamData2: xxxxxxxx, ALUSrcA: 00, ALUSrcB: 00
[datapath] time: 0000000000000069, RealPCWrite: 0, PCSource: 0, nextInsAddr: xxxx, currentInsAddr: 0000, aluResult xxxxxxxx, aluOut: 00000000, instruction: 00000000, memAddr: 0000, memData: 00000000, memDataInReg: 00000000, writeRegAddr: 00, writeRegData: 00000000, dataFromReg1: 00000000, dataFromReg2: 00000000, aluParamData1: 00000000, aluParamData2: 00000000, ALUSrcA: 00, ALUSrcB: 00
[datapath] time: 0000000000000069, RealPCWrite: 0, PCSource: 0, nextInsAddr: xxxx, currentInsAddr: 0000, aluResult 00000000, aluOut: 00000000, instruction: 00000000, memAddr: 0000, memData: 00000000, memDataInReg: 00000000, writeRegAddr: 00, writeRegData: 00000000, dataFromReg1: 00000000, dataFromReg2: 00000000, aluParamData1: 00000000, aluParamData2: 00000000, ALUSrcA: 00, ALUSrcB: 00
[datapath] time: 0000000000000069, RealPCWrite: 0, PCSource: 0, nextInsAddr: 0000, currentInsAddr: 0000, aluResult 00000000, aluOut: 00000000, instruction: 00000000, memAddr: 0000, memData: 00000000, memDataInReg: 00000000, writeRegAddr: 00, writeRegData: 00000000, dataFromReg1: 00000000, dataFromReg2: 00000000, aluParamData1: 00000000, aluParamData2: 00000000, ALUSrcA: 00, ALUSrcB: 00
[regfile] time: 0000000000000073, regWrite: 0, writeAddr: 00, writeData: 00000000, $t0: xxxxxxxx, $t1: xxxxxxxx, $t2: xxxxxxxx, $t3: 00000008
[regfile] time: 000000000000007d, regWrite: 0, writeAddr: 00, writeData: 00000000, $t0: xxxxxxxx, $t1: xxxxxxxx, $t2: xxxxxxxx, $t3: 00000008
[regfile] time: 0000000000000087, regWrite: 0, writeAddr: 00, writeData: 00000000, $t0: xxxxxxxx, $t1: xxxxxxxx, $t2: xxxxxxxx, $t3: 00000008
[regfile] time: 0000000000000091, regWrite: 0, writeAddr: 00, writeData: 00000000, $t0: xxxxxxxx, $t1: xxxxxxxx, $t2: xxxxxxxx, $t3: 00000008
[regfile] time: 000000000000009b, regWrite: 0, writeAddr: 00, writeData: 00000000, $t0: xxxxxxxx, $t1: xxxxxxxx, $t2: xxxxxxxx, $t3: 00000008
[regfile] time: 00000000000000a5, regWrite: 0, writeAddr: 00, writeData: 00000000, $t0: xxxxxxxx, $t1: xxxxxxxx, $t2: xxxxxxxx, $t3: 00000008
[regfile] time: 00000000000000af, regWrite: 0, writeAddr: 00, writeData: 00000000, $t0: xxxxxxxx, $t1: xxxxxxxx, $t2: xxxxxxxx, $t3: 00000008
[regfile] time: 00000000000000b9, regWrite: 0, writeAddr: 00, writeData: 00000000, $t0: xxxxxxxx, $t1: xxxxxxxx, $t2: xxxxxxxx, $t3: 00000008
[regfile] time: 00000000000000c3, regWrite: 0, writeAddr: 00, writeData: 00000000, $t0: xxxxxxxx, $t1: xxxxxxxx, $t2: xxxxxxxx, $t3: 00000008
[regfile] time: 00000000000000cd, regWrite: 0, writeAddr: 00, writeData: 00000000, $t0: xxxxxxxx, $t1: xxxxxxxx, $t2: xxxxxxxx, $t3: 00000008
[regfile] time: 00000000000000d7, regWrite: 0, writeAddr: 00, writeData: 00000000, $t0: xxxxxxxx, $t1: xxxxxxxx, $t2: xxxxxxxx, $t3: 00000008
[regfile] time: 00000000000000e1, regWrite: 0, writeAddr: 00, writeData: 00000000, $t0: xxxxxxxx, $t1: xxxxxxxx, $t2: xxxxxxxx, $t3: 00000008
[regfile] time: 00000000000000eb, regWrite: 0, writeAddr: 00, writeData: 00000000, $t0: xxxxxxxx, $t1: xxxxxxxx, $t2: xxxxxxxx, $t3: 00000008
[regfile] time: 00000000000000f5, regWrite: 0, writeAddr: 00, writeData: 00000000, $t0: xxxxxxxx, $t1: xxxxxxxx, $t2: xxxxxxxx, $t3: 00000008
[regfile] time: 00000000000000ff, regWrite: 0, writeAddr: 00, writeData: 00000000, $t0: xxxxxxxx, $t1: xxxxxxxx, $t2: xxxxxxxx, $t3: 00000008
[regfile] time: 0000000000000109, regWrite: 0, writeAddr: 00, writeData: 00000000, $t0: xxxxxxxx, $t1: xxxxxxxx, $t2: xxxxxxxx, $t3: 00000008
[regfile] time: 0000000000000113, regWrite: 0, writeAddr: 00, writeData: 00000000, $t0: xxxxxxxx, $t1: xxxxxxxx, $t2: xxxxxxxx, $t3: 00000008
[regfile] time: 000000000000011d, regWrite: 0, writeAddr: 00, writeData: 00000000, $t0: xxxxxxxx, $t1: xxxxxxxx, $t2: xxxxxxxx, $t3: 00000008
[regfile] time: 0000000000000127, regWrite: 0, writeAddr: 00, writeData: 00000000, $t0: xxxxxxxx, $t1: xxxxxxxx, $t2: xxxxxxxx, $t3: 00000008
[regfile] time: 0000000000000131, regWrite: 0, writeAddr: 00, writeData: 00000000, $t0: xxxxxxxx, $t1: xxxxxxxx, $t2: xxxxxxxx, $t3: 00000008
[controller] time: 0000000000000131, current State: FETCH
[datapath] time: 0000000000000131, RealPCWrite: 1, PCSource: 0, nextInsAddr: 0000, currentInsAddr: 0000, aluResult 00000000, aluOut: 00000000, instruction: 00000000, memAddr: 0000, memData: 00000000, memDataInReg: 00000000, writeRegAddr: 00, writeRegData: 00000000, dataFromReg1: 00000000, dataFromReg2: 00000000, aluParamData1: 00000000, aluParamData2: 00000000, ALUSrcA: 00, ALUSrcB: 01
[datapath] time: 0000000000000131, RealPCWrite: 1, PCSource: 0, nextInsAddr: 0000, currentInsAddr: 0000, aluResult 00000000, aluOut: 00000000, instruction: 00000000, memAddr: 0000, memData: 00000000, memDataInReg: 00000000, writeRegAddr: 00, writeRegData: 00000000, dataFromReg1: 00000000, dataFromReg2: 00000000, aluParamData1: 00000000, aluParamData2: 00000004, ALUSrcA: 00, ALUSrcB: 01
[datapath] time: 0000000000000131, RealPCWrite: 1, PCSource: 0, nextInsAddr: 0000, currentInsAddr: 0000, aluResult 00000004, aluOut: 00000000, instruction: 00000000, memAddr: 0000, memData: 00000000, memDataInReg: 00000000, writeRegAddr: 00, writeRegData: 00000000, dataFromReg1: 00000000, dataFromReg2: 00000000, aluParamData1: 00000000, aluParamData2: 00000004, ALUSrcA: 00, ALUSrcB: 01
[datapath] time: 0000000000000131, RealPCWrite: 1, PCSource: 0, nextInsAddr: 0004, currentInsAddr: 0000, aluResult 00000004, aluOut: 00000000, instruction: 00000000, memAddr: 0000, memData: 00000000, memDataInReg: 00000000, writeRegAddr: 00, writeRegData: 00000000, dataFromReg1: 00000000, dataFromReg2: 00000000, aluParamData1: 00000000, aluParamData2: 00000004, ALUSrcA: 00, ALUSrcB: 01
[regfile] time: 000000000000013b, regWrite: 0, writeAddr: 00, writeData: 00000000, $t0: xxxxxxxx, $t1: xxxxxxxx, $t2: xxxxxxxx, $t3: 00000008
[controller] time: 000000000000013b, current State: DECODE
[datapath] time: 000000000000013b, RealPCWrite: 1, PCSource: 0, nextInsAddr: 0004, currentInsAddr: 0004, aluResult 00000004, aluOut: 00000004, instruction: 00000000, memAddr: 0004, memData: 00000000, memDataInReg: 00000000, writeRegAddr: 00, writeRegData: 00000004, dataFromReg1: 00000000, dataFromReg2: 00000000, aluParamData1: 00000000, aluParamData2: 00000004, ALUSrcA: 00, ALUSrcB: 01
[datapath] time: 000000000000013b, RealPCWrite: 0, PCSource: 0, nextInsAddr: 0004, currentInsAddr: 0004, aluResult 00000004, aluOut: 00000004, instruction: 00000000, memAddr: 0004, memData: 20130001, memDataInReg: 00000000, writeRegAddr: 00, writeRegData: 00000004, dataFromReg1: 00000000, dataFromReg2: 00000000, aluParamData1: 00000004, aluParamData2: 00000004, ALUSrcA: 00, ALUSrcB: 11
[datapath] time: 000000000000013b, RealPCWrite: 0, PCSource: 0, nextInsAddr: 0004, currentInsAddr: 0004, aluResult 00000008, aluOut: 00000004, instruction: 00000000, memAddr: 0004, memData: 20130001, memDataInReg: 00000000, writeRegAddr: 00, writeRegData: 00000004, dataFromReg1: 00000000, dataFromReg2: 00000000, aluParamData1: 00000004, aluParamData2: 00000000, ALUSrcA: 00, ALUSrcB: 11
[datapath] time: 000000000000013b, RealPCWrite: 0, PCSource: 0, nextInsAddr: 0008, currentInsAddr: 0004, aluResult 00000004, aluOut: 00000004, instruction: 00000000, memAddr: 0004, memData: 20130001, memDataInReg: 00000000, writeRegAddr: 00, writeRegData: 00000004, dataFromReg1: 00000000, dataFromReg2: 00000000, aluParamData1: 00000004, aluParamData2: 00000000, ALUSrcA: 00, ALUSrcB: 11
[datapath] time: 000000000000013b, RealPCWrite: 0, PCSource: 0, nextInsAddr: 0004, currentInsAddr: 0004, aluResult 00000004, aluOut: 00000004, instruction: 00000000, memAddr: 0004, memData: 20130001, memDataInReg: 00000000, writeRegAddr: 00, writeRegData: 00000004, dataFromReg1: 00000000, dataFromReg2: 00000000, aluParamData1: 00000004, aluParamData2: 00000000, ALUSrcA: 00, ALUSrcB: 11
[regfile] time: 0000000000000145, regWrite: 0, writeAddr: 00, writeData: 00000004, $t0: xxxxxxxx, $t1: xxxxxxxx, $t2: xxxxxxxx, $t3: 00000008
[controller] time: 0000000000000145, current State: RTYPE_EXCUTION
[datapath] time: 0000000000000145, RealPCWrite: 0, PCSource: 0, nextInsAddr: 0004, currentInsAddr: 0004, aluResult 00000004, aluOut: 00000004, instruction: 00000000, memAddr: 0004, memData: 20130001, memDataInReg: 20130001, writeRegAddr: 00, writeRegData: 00000004, dataFromReg1: 00000000, dataFromReg2: 00000000, aluParamData1: 00000004, aluParamData2: 00000000, ALUSrcA: 00, ALUSrcB: 11
[datapath] time: 0000000000000145, RealPCWrite: 0, PCSource: 0, nextInsAddr: 0004, currentInsAddr: 0004, aluResult 00000004, aluOut: 00000004, instruction: 00000000, memAddr: 0004, memData: 20130001, memDataInReg: 20130001, writeRegAddr: 00, writeRegData: 00000004, dataFromReg1: 00000000, dataFromReg2: 00000000, aluParamData1: 00000004, aluParamData2: 00000000, ALUSrcA: 10, ALUSrcB: 00
[datapath] time: 0000000000000145, RealPCWrite: 0, PCSource: 0, nextInsAddr: 0004, currentInsAddr: 0004, aluResult 00000000, aluOut: 00000004, instruction: 00000000, memAddr: 0004, memData: 20130001, memDataInReg: 20130001, writeRegAddr: 00, writeRegData: 00000004, dataFromReg1: 00000000, dataFromReg2: 00000000, aluParamData1: 00000000, aluParamData2: 00000000, ALUSrcA: 10, ALUSrcB: 00
[datapath] time: 0000000000000145, RealPCWrite: 0, PCSource: 0, nextInsAddr: 0000, currentInsAddr: 0004, aluResult 00000000, aluOut: 00000004, instruction: 00000000, memAddr: 0004, memData: 20130001, memDataInReg: 20130001, writeRegAddr: 00, writeRegData: 00000004, dataFromReg1: 00000000, dataFromReg2: 00000000, aluParamData1: 00000000, aluParamData2: 00000000, ALUSrcA: 10, ALUSrcB: 00
[regfile] time: 000000000000014f, regWrite: 0, writeAddr: 00, writeData: 00000004, $t0: xxxxxxxx, $t1: xxxxxxxx, $t2: xxxxxxxx, $t3: 00000008
[controller] time: 000000000000014f, current State: RTYPE_COMPLETION
[datapath] time: 000000000000014f, RealPCWrite: 0, PCSource: 0, nextInsAddr: 0000, currentInsAddr: 0004, aluResult 00000000, aluOut: 00000000, instruction: 00000000, memAddr: 0004, memData: 20130001, memDataInReg: 20130001, writeRegAddr: 00, writeRegData: 00000000, dataFromReg1: 00000000, dataFromReg2: 00000000, aluParamData1: 00000000, aluParamData2: 00000000, ALUSrcA: 10, ALUSrcB: 00
[datapath] time: 000000000000014f, RealPCWrite: 0, PCSource: 0, nextInsAddr: 0000, currentInsAddr: 0004, aluResult 00000000, aluOut: 00000000, instruction: 00000000, memAddr: 0004, memData: 20130001, memDataInReg: 20130001, writeRegAddr: 00, writeRegData: 00000000, dataFromReg1: 00000000, dataFromReg2: 00000000, aluParamData1: 00000000, aluParamData2: 00000000, ALUSrcA: 00, ALUSrcB: 00
[datapath] time: 000000000000014f, RealPCWrite: 0, PCSource: 0, nextInsAddr: 0000, currentInsAddr: 0004, aluResult 00000000, aluOut: 00000000, instruction: 00000000, memAddr: 0004, memData: 20130001, memDataInReg: 20130001, writeRegAddr: 00, writeRegData: 00000000, dataFromReg1: 00000000, dataFromReg2: 00000000, aluParamData1: 00000004, aluParamData2: 00000000, ALUSrcA: 00, ALUSrcB: 00
[datapath] time: 000000000000014f, RealPCWrite: 0, PCSource: 0, nextInsAddr: 0000, currentInsAddr: 0004, aluResult 00000004, aluOut: 00000000, instruction: 00000000, memAddr: 0004, memData: 20130001, memDataInReg: 20130001, writeRegAddr: 00, writeRegData: 00000000, dataFromReg1: 00000000, dataFromReg2: 00000000, aluParamData1: 00000004, aluParamData2: 00000000, ALUSrcA: 00, ALUSrcB: 00
[datapath] time: 000000000000014f, RealPCWrite: 0, PCSource: 0, nextInsAddr: 0004, currentInsAddr: 0004, aluResult 00000004, aluOut: 00000000, instruction: 00000000, memAddr: 0004, memData: 20130001, memDataInReg: 20130001, writeRegAddr: 00, writeRegData: 00000000, dataFromReg1: 00000000, dataFromReg2: 00000000, aluParamData1: 00000004, aluParamData2: 00000000, ALUSrcA: 00, ALUSrcB: 00
[regfile] time: 0000000000000159, regWrite: 1, writeAddr: 00, writeData: 00000000, $t0: xxxxxxxx, $t1: xxxxxxxx, $t2: xxxxxxxx, $t3: 00000008
[controller] time: 0000000000000159, current State: FETCH
[datapath] time: 0000000000000159, RealPCWrite: 0, PCSource: 0, nextInsAddr: 0004, currentInsAddr: 0004, aluResult 00000004, aluOut: 00000004, instruction: 00000000, memAddr: 0004, memData: 20130001, memDataInReg: 20130001, writeRegAddr: 00, writeRegData: 00000004, dataFromReg1: 00000000, dataFromReg2: 00000000, aluParamData1: 00000004, aluParamData2: 00000000, ALUSrcA: 00, ALUSrcB: 00
[datapath] time: 0000000000000159, RealPCWrite: 1, PCSource: 0, nextInsAddr: 0004, currentInsAddr: 0004, aluResult 00000004, aluOut: 00000004, instruction: 00000000, memAddr: 0004, memData: 20130001, memDataInReg: 20130001, writeRegAddr: 00, writeRegData: 00000004, dataFromReg1: 00000000, dataFromReg2: 00000000, aluParamData1: 00000004, aluParamData2: 00000000, ALUSrcA: 00, ALUSrcB: 01
[datapath] time: 0000000000000159, RealPCWrite: 1, PCSource: 0, nextInsAddr: 0004, currentInsAddr: 0004, aluResult 00000004, aluOut: 00000004, instruction: 00000000, memAddr: 0004, memData: 20130001, memDataInReg: 20130001, writeRegAddr: 00, writeRegData: 00000004, dataFromReg1: 00000000, dataFromReg2: 00000000, aluParamData1: 00000004, aluParamData2: 00000004, ALUSrcA: 00, ALUSrcB: 01
[datapath] time: 0000000000000159, RealPCWrite: 1, PCSource: 0, nextInsAddr: 0004, currentInsAddr: 0004, aluResult 00000008, aluOut: 00000004, instruction: 00000000, memAddr: 0004, memData: 20130001, memDataInReg: 20130001, writeRegAddr: 00, writeRegData: 00000004, dataFromReg1: 00000000, dataFromReg2: 00000000, aluParamData1: 00000004, aluParamData2: 00000004, ALUSrcA: 00, ALUSrcB: 01
[datapath] time: 0000000000000159, RealPCWrite: 1, PCSource: 0, nextInsAddr: 0008, currentInsAddr: 0004, aluResult 00000008, aluOut: 00000004, instruction: 00000000, memAddr: 0004, memData: 20130001, memDataInReg: 20130001, writeRegAddr: 00, writeRegData: 00000004, dataFromReg1: 00000000, dataFromReg2: 00000000, aluParamData1: 00000004, aluParamData2: 00000004, ALUSrcA: 00, ALUSrcB: 01
[regfile] time: 0000000000000163, regWrite: 0, writeAddr: 00, writeData: 00000004, $t0: xxxxxxxx, $t1: xxxxxxxx, $t2: xxxxxxxx, $t3: 00000008
[controller] time: 0000000000000163, current State: DECODE
[datapath] time: 0000000000000163, RealPCWrite: 1, PCSource: 0, nextInsAddr: 0008, currentInsAddr: 0008, aluResult 00000008, aluOut: 00000008, instruction: 20130001, memAddr: 0008, memData: 20130001, memDataInReg: 20130001, writeRegAddr: 00, writeRegData: 00000008, dataFromReg1: 00000000, dataFromReg2: 00000000, aluParamData1: 00000004, aluParamData2: 00000004, ALUSrcA: 00, ALUSrcB: 01
[controller] time: 0000000000000163, current State: DECODE
[datapath] time: 0000000000000163, RealPCWrite: 1, PCSource: 0, nextInsAddr: 0008, currentInsAddr: 0008, aluResult 00000008, aluOut: 00000008, instruction: 20130001, memAddr: 0008, memData: 20130001, memDataInReg: 20130001, writeRegAddr: 13, writeRegData: 00000008, dataFromReg1: 00000000, dataFromReg2: xxxxxxxx, aluParamData1: 00000004, aluParamData2: 00000004, ALUSrcA: 00, ALUSrcB: 01
[datapath] time: 0000000000000163, RealPCWrite: 0, PCSource: 0, nextInsAddr: 0008, currentInsAddr: 0008, aluResult 00000008, aluOut: 00000008, instruction: 20130001, memAddr: 0008, memData: 20080008, memDataInReg: 20130001, writeRegAddr: 13, writeRegData: 00000008, dataFromReg1: 00000000, dataFromReg2: xxxxxxxx, aluParamData1: 00000008, aluParamData2: 00000004, ALUSrcA: 00, ALUSrcB: 11
[datapath] time: 0000000000000163, RealPCWrite: 0, PCSource: 0, nextInsAddr: 0008, currentInsAddr: 0008, aluResult 0000000c, aluOut: 00000008, instruction: 20130001, memAddr: 0008, memData: 20080008, memDataInReg: 20130001, writeRegAddr: 13, writeRegData: 00000008, dataFromReg1: 00000000, dataFromReg2: xxxxxxxx, aluParamData1: 00000008, aluParamData2: 00000004, ALUSrcA: 00, ALUSrcB: 11
[datapath] time: 0000000000000163, RealPCWrite: 0, PCSource: 0, nextInsAddr: 000c, currentInsAddr: 0008, aluResult 0000000c, aluOut: 00000008, instruction: 20130001, memAddr: 0008, memData: 20080008, memDataInReg: 20130001, writeRegAddr: 13, writeRegData: 00000008, dataFromReg1: 00000000, dataFromReg2: xxxxxxxx, aluParamData1: 00000008, aluParamData2: 00000004, ALUSrcA: 00, ALUSrcB: 11
[regfile] time: 000000000000016d, regWrite: 0, writeAddr: 13, writeData: 00000008, $t0: xxxxxxxx, $t1: xxxxxxxx, $t2: xxxxxxxx, $t3: 00000008
[controller] time: 000000000000016d, current State: IMM_EXCUTION
[datapath] time: 000000000000016d, RealPCWrite: 0, PCSource: 0, nextInsAddr: 000c, currentInsAddr: 0008, aluResult 0000000c, aluOut: 0000000c, instruction: 20130001, memAddr: 0008, memData: 20080008, memDataInReg: 20080008, writeRegAddr: 13, writeRegData: 0000000c, dataFromReg1: 00000000, dataFromReg2: xxxxxxxx, aluParamData1: 00000008, aluParamData2: 00000004, ALUSrcA: 00, ALUSrcB: 11
[datapath] time: 000000000000016d, RealPCWrite: 0, PCSource: 0, nextInsAddr: 000c, currentInsAddr: 0008, aluResult 0000000c, aluOut: 0000000c, instruction: 20130001, memAddr: 0008, memData: 20080008, memDataInReg: 20080008, writeRegAddr: 13, writeRegData: 0000000c, dataFromReg1: 00000000, dataFromReg2: xxxxxxxx, aluParamData1: 00000008, aluParamData2: 00000004, ALUSrcA: 01, ALUSrcB: 10
[datapath] time: 000000000000016d, RealPCWrite: 0, PCSource: 0, nextInsAddr: 000c, currentInsAddr: 0008, aluResult 0000000c, aluOut: 0000000c, instruction: 20130001, memAddr: 0008, memData: 20080008, memDataInReg: 20080008, writeRegAddr: 13, writeRegData: 0000000c, dataFromReg1: 00000000, dataFromReg2: xxxxxxxx, aluParamData1: 00000000, aluParamData2: 00000001, ALUSrcA: 01, ALUSrcB: 10
[datapath] time: 000000000000016d, RealPCWrite: 0, PCSource: 0, nextInsAddr: 000c, currentInsAddr: 0008, aluResult 00000001, aluOut: 0000000c, instruction: 20130001, memAddr: 0008, memData: 20080008, memDataInReg: 20080008, writeRegAddr: 13, writeRegData: 0000000c, dataFromReg1: 00000000, dataFromReg2: xxxxxxxx, aluParamData1: 00000000, aluParamData2: 00000001, ALUSrcA: 01, ALUSrcB: 10
[datapath] time: 000000000000016d, RealPCWrite: 0, PCSource: 0, nextInsAddr: 0001, currentInsAddr: 0008, aluResult 00000001, aluOut: 0000000c, instruction: 20130001, memAddr: 0008, memData: 20080008, memDataInReg: 20080008, writeRegAddr: 13, writeRegData: 0000000c, dataFromReg1: 00000000, dataFromReg2: xxxxxxxx, aluParamData1: 00000000, aluParamData2: 00000001, ALUSrcA: 01, ALUSrcB: 10
[regfile] time: 0000000000000177, regWrite: 0, writeAddr: 13, writeData: 0000000c, $t0: xxxxxxxx, $t1: xxxxxxxx, $t2: xxxxxxxx, $t3: 00000008
[controller] time: 0000000000000177, current State: IMM_COMPLETION
[datapath] time: 0000000000000177, RealPCWrite: 0, PCSource: 0, nextInsAddr: 0001, currentInsAddr: 0008, aluResult 00000001, aluOut: 00000001, instruction: 20130001, memAddr: 0008, memData: 20080008, memDataInReg: 20080008, writeRegAddr: 13, writeRegData: 00000001, dataFromReg1: 00000000, dataFromReg2: xxxxxxxx, aluParamData1: 00000000, aluParamData2: 00000001, ALUSrcA: 01, ALUSrcB: 10
[datapath] time: 0000000000000177, RealPCWrite: 0, PCSource: 0, nextInsAddr: 0001, currentInsAddr: 0008, aluResult 00000001, aluOut: 00000001, instruction: 20130001, memAddr: 0008, memData: 20080008, memDataInReg: 20080008, writeRegAddr: 13, writeRegData: 00000001, dataFromReg1: 00000000, dataFromReg2: xxxxxxxx, aluParamData1: 00000000, aluParamData2: 00000001, ALUSrcA: 00, ALUSrcB: 00
[datapath] time: 0000000000000177, RealPCWrite: 0, PCSource: 0, nextInsAddr: 0001, currentInsAddr: 0008, aluResult 00000001, aluOut: 00000001, instruction: 20130001, memAddr: 0008, memData: 20080008, memDataInReg: 20080008, writeRegAddr: 13, writeRegData: 00000001, dataFromReg1: 00000000, dataFromReg2: xxxxxxxx, aluParamData1: 00000008, aluParamData2: xxxxxxxx, ALUSrcA: 00, ALUSrcB: 00
[datapath] time: 0000000000000177, RealPCWrite: 0, PCSource: 0, nextInsAddr: 0001, currentInsAddr: 0008, aluResult xxxxxxxx, aluOut: 00000001, instruction: 20130001, memAddr: 0008, memData: 20080008, memDataInReg: 20080008, writeRegAddr: 13, writeRegData: 00000001, dataFromReg1: 00000000, dataFromReg2: xxxxxxxx, aluParamData1: 00000008, aluParamData2: xxxxxxxx, ALUSrcA: 00, ALUSrcB: 00
[datapath] time: 0000000000000177, RealPCWrite: 0, PCSource: 0, nextInsAddr: xxxx, currentInsAddr: 0008, aluResult xxxxxxxx, aluOut: 00000001, instruction: 20130001, memAddr: 0008, memData: 20080008, memDataInReg: 20080008, writeRegAddr: 13, writeRegData: 00000001, dataFromReg1: 00000000, dataFromReg2: xxxxxxxx, aluParamData1: 00000008, aluParamData2: xxxxxxxx, ALUSrcA: 00, ALUSrcB: 00
[regfile] time: 0000000000000181, regWrite: 1, writeAddr: 13, writeData: 00000001, $t0: xxxxxxxx, $t1: xxxxxxxx, $t2: xxxxxxxx, $t3: 00000008
[controller] time: 0000000000000181, current State: FETCH
[datapath] time: 0000000000000181, RealPCWrite: 0, PCSource: 0, nextInsAddr: xxxx, currentInsAddr: 0008, aluResult xxxxxxxx, aluOut: 00000001, instruction: 20130001, memAddr: 0008, memData: 20080008, memDataInReg: 20080008, writeRegAddr: 13, writeRegData: 00000001, dataFromReg1: 00000000, dataFromReg2: 00000001, aluParamData1: 00000008, aluParamData2: xxxxxxxx, ALUSrcA: 00, ALUSrcB: 00
[datapath] time: 0000000000000181, RealPCWrite: 0, PCSource: 0, nextInsAddr: xxxx, currentInsAddr: 0008, aluResult xxxxxxxx, aluOut: xxxxxxxx, instruction: 20130001, memAddr: 0008, memData: 20080008, memDataInReg: 20080008, writeRegAddr: 13, writeRegData: xxxxxxxx, dataFromReg1: 00000000, dataFromReg2: 00000001, aluParamData1: 00000008, aluParamData2: xxxxxxxx, ALUSrcA: 00, ALUSrcB: 00
[datapath] time: 0000000000000181, RealPCWrite: 1, PCSource: 0, nextInsAddr: xxxx, currentInsAddr: 0008, aluResult xxxxxxxx, aluOut: xxxxxxxx, instruction: 20130001, memAddr: 0008, memData: 20080008, memDataInReg: 20080008, writeRegAddr: 13, writeRegData: xxxxxxxx, dataFromReg1: 00000000, dataFromReg2: 00000001, aluParamData1: 00000008, aluParamData2: xxxxxxxx, ALUSrcA: 00, ALUSrcB: 01
[datapath] time: 0000000000000181, RealPCWrite: 1, PCSource: 0, nextInsAddr: xxxx, currentInsAddr: 0008, aluResult xxxxxxxx, aluOut: xxxxxxxx, instruction: 20130001, memAddr: 0008, memData: 20080008, memDataInReg: 20080008, writeRegAddr: 13, writeRegData: xxxxxxxx, dataFromReg1: 00000000, dataFromReg2: 00000001, aluParamData1: 00000008, aluParamData2: 00000004, ALUSrcA: 00, ALUSrcB: 01
[datapath] time: 0000000000000181, RealPCWrite: 1, PCSource: 0, nextInsAddr: xxxx, currentInsAddr: 0008, aluResult 0000000c, aluOut: xxxxxxxx, instruction: 20130001, memAddr: 0008, memData: 20080008, memDataInReg: 20080008, writeRegAddr: 13, writeRegData: xxxxxxxx, dataFromReg1: 00000000, dataFromReg2: 00000001, aluParamData1: 00000008, aluParamData2: 00000004, ALUSrcA: 00, ALUSrcB: 01
[datapath] time: 0000000000000181, RealPCWrite: 1, PCSource: 0, nextInsAddr: 000c, currentInsAddr: 0008, aluResult 0000000c, aluOut: xxxxxxxx, instruction: 20130001, memAddr: 0008, memData: 20080008, memDataInReg: 20080008, writeRegAddr: 13, writeRegData: xxxxxxxx, dataFromReg1: 00000000, dataFromReg2: 00000001, aluParamData1: 00000008, aluParamData2: 00000004, ALUSrcA: 00, ALUSrcB: 01
[regfile] time: 000000000000018b, regWrite: 0, writeAddr: 13, writeData: xxxxxxxx, $t0: xxxxxxxx, $t1: xxxxxxxx, $t2: xxxxxxxx, $t3: 00000008
[controller] time: 000000000000018b, current State: DECODE
[datapath] time: 000000000000018b, RealPCWrite: 1, PCSource: 0, nextInsAddr: 000c, currentInsAddr: 000c, aluResult 0000000c, aluOut: 0000000c, instruction: 20080008, memAddr: 000c, memData: 20080008, memDataInReg: 20080008, writeRegAddr: 13, writeRegData: 0000000c, dataFromReg1: 00000000, dataFromReg2: 00000001, aluParamData1: 00000008, aluParamData2: 00000004, ALUSrcA: 00, ALUSrcB: 01
[controller] time: 000000000000018b, current State: DECODE
